…
``` r
ny_noaa %>% 
  group_by(snow) %>%
  summarize(
    n_obs = n())
```

    ## `summarise()` ungrouping output (override with `.groups` argument)

    ## # A tibble: 282 x 2
    ##     snow   n_obs
    ##    <int>   <int>
    ##  1   -13       1
    ##  2     0 2008508
    ##  3     3    8790
    ##  4     5    9748
    ##  5     8    9962
    ##  6    10    5106
    ##  7    13   23095
    ##  8    15    3672
    ##  9    18    3226
    ## 10    20    4797
    ## # ... with 272 more rows
…
